EESchema Schematic File Version 4
EELAYER 30 0
EELAYER END
$Descr A4 11693 8268
encoding utf-8
Sheet 1 1
Title ""
Date ""
Rev ""
Comp ""
Comment1 ""
Comment2 ""
Comment3 ""
Comment4 ""
$EndDescr
$Comp
L 3886_dual-rescue:LM3886T U1
U 1 1 5637A8E7
P 3250 1850
F 0 "U1" H 3500 2100 40  0000 C CNN
F 1 "LM3886T" H 3500 2050 40  0000 C CNN
F 2 "lm3886:Multiwatt11" H 3050 1850 30  0000 C CIN
F 3 "" H 3250 1850 60  0000 C CNN
	1    3250 1850
	1    0    0    -1  
$EndComp
$Comp
L Device:C C1
U 1 1 5637AD53
P 1700 1650
F 0 "C1" H 1725 1750 50  0000 L CNN
F 1 "100n" H 1725 1550 50  0000 L CNN
F 2 "Capacitors_ThroughHole:C_Disc_D7.5_P5" H 1738 1500 30  0001 C CNN
F 3 "" H 1700 1650 60  0000 C CNN
	1    1700 1650
	0    1    1    0   
$EndComp
$Comp
L Device:R R1
U 1 1 5637AD96
P 2000 1950
F 0 "R1" V 2080 1950 50  0000 C CNN
F 1 "47k" V 2000 1950 50  0000 C CNN
F 2 "Resistors_ThroughHole:Resistor_Horizontal_RM15mm" V 1930 1950 30  0001 C CNN
F 3 "" H 2000 1950 30  0000 C CNN
	1    2000 1950
	-1   0    0    1   
$EndComp
$Comp
L Device:R R2
U 1 1 5637AE0E
P 2300 1650
F 0 "R2" V 2380 1650 50  0000 C CNN
F 1 "1k" V 2300 1650 50  0000 C CNN
F 2 "Resistors_ThroughHole:Resistor_Horizontal_RM15mm" V 2230 1650 30  0001 C CNN
F 3 "" H 2300 1650 30  0000 C CNN
	1    2300 1650
	0    1    1    0   
$EndComp
$Comp
L 3886_dual-rescue:CONN_01X02 P1
U 1 1 5637AEBD
P 1050 1700
F 0 "P1" H 1050 1850 50  0000 C CNN
F 1 "IN1" V 1150 1700 50  0000 C CNN
F 2 "Connect:AK300-2" H 1050 1700 60  0001 C CNN
F 3 "" H 1050 1700 60  0000 C CNN
	1    1050 1700
	-1   0    0    1   
$EndComp
$Comp
L power:GND #PWR01
U 1 1 5637AF28
P 2000 2450
F 0 "#PWR01" H 2000 2200 50  0001 C CNN
F 1 "GND" H 2000 2300 50  0000 C CNN
F 2 "" H 2000 2450 60  0000 C CNN
F 3 "" H 2000 2450 60  0000 C CNN
	1    2000 2450
	1    0    0    -1  
$EndComp
$Comp
L 3886_dual-rescue:CONN_01X01 P3
U 1 1 5637B5FE
P 10350 950
F 0 "P3" H 10350 1050 50  0000 C CNN
F 1 "+35V" V 10450 950 50  0000 C CNN
F 2 "Wire_Pads:SolderWirePad_single_0-8mmDrill" H 10350 950 60  0001 C CNN
F 3 "" H 10350 950 60  0000 C CNN
	1    10350 950 
	1    0    0    -1  
$EndComp
$Comp
L Device:R R5
U 1 1 5637EBF4
P 3400 2350
F 0 "R5" V 3480 2350 50  0000 C CNN
F 1 "22k" V 3400 2350 50  0000 C CNN
F 2 "Resistors_ThroughHole:Resistor_Horizontal_RM15mm" V 3330 2350 30  0001 C CNN
F 3 "" H 3400 2350 30  0000 C CNN
	1    3400 2350
	-1   0    0    1   
$EndComp
$Comp
L power:GND #PWR02
U 1 1 5637F172
P 3600 2600
F 0 "#PWR02" H 3600 2350 50  0001 C CNN
F 1 "GND" H 3600 2450 50  0000 C CNN
F 2 "" H 3600 2600 60  0000 C CNN
F 3 "" H 3600 2600 60  0000 C CNN
	1    3600 2600
	1    0    0    -1  
$EndComp
$Comp
L Device:CP C4
U 1 1 5637F19E
P 3600 2350
F 0 "C4" H 3625 2450 50  0000 L CNN
F 1 "22u" H 3625 2250 50  0000 L CNN
F 2 "Capacitors_Elko_ThroughHole:Elko_vert_11x5mm_RM2" H 3638 2200 30  0001 C CNN
F 3 "" H 3600 2350 60  0000 C CNN
	1    3600 2350
	-1   0    0    1   
$EndComp
$Comp
L Device:R R4
U 1 1 5637FA43
P 2800 2900
F 0 "R4" V 2880 2900 50  0000 C CNN
F 1 "22k" V 2800 2900 50  0000 C CNN
F 2 "Resistors_ThroughHole:Resistor_Horizontal_RM15mm" V 2730 2900 30  0001 C CNN
F 3 "" H 2800 2900 30  0000 C CNN
	1    2800 2900
	0    1    1    0   
$EndComp
$Comp
L Device:R R3
U 1 1 5638041E
P 2400 3250
F 0 "R3" V 2480 3250 50  0000 C CNN
F 1 "1k" V 2400 3250 50  0000 C CNN
F 2 "Resistors_ThroughHole:Resistor_Horizontal_RM15mm" V 2330 3250 30  0001 C CNN
F 3 "" H 2400 3250 30  0000 C CNN
	1    2400 3250
	1    0    0    -1  
$EndComp
$Comp
L Device:C C2
U 1 1 56380A97
P 2400 3700
F 0 "C2" H 2425 3800 50  0000 L CNN
F 1 "22u" H 2425 3600 50  0000 L CNN
F 2 "Capacitors_Elko_ThroughHole:Elko_vert_11x5mm_RM2" H 2438 3550 30  0001 C CNN
F 3 "" H 2400 3700 60  0000 C CNN
	1    2400 3700
	1    0    0    -1  
$EndComp
$Comp
L power:GND #PWR03
U 1 1 5638347F
P 4400 2700
F 0 "#PWR03" H 4400 2450 50  0001 C CNN
F 1 "GND" H 4400 2550 50  0000 C CNN
F 2 "" H 4400 2700 60  0000 C CNN
F 3 "" H 4400 2700 60  0000 C CNN
	1    4400 2700
	1    0    0    -1  
$EndComp
$Comp
L Device:C C8
U 1 1 563834B3
P 4400 2450
F 0 "C8" H 4425 2550 50  0000 L CNN
F 1 "100n" H 4425 2350 50  0000 L CNN
F 2 "Capacitors_ThroughHole:C_Disc_D7.5_P5" H 4438 2300 30  0001 C CNN
F 3 "" H 4400 2450 60  0000 C CNN
	1    4400 2450
	1    0    0    -1  
$EndComp
$Comp
L Device:R R6
U 1 1 56383541
P 4400 2050
F 0 "R6" V 4480 2050 50  0000 C CNN
F 1 "2.7R" V 4400 2050 50  0000 C CNN
F 2 "Resistors_ThroughHole:Resistor_Vertical_RM5mm" V 4330 2050 30  0001 C CNN
F 3 "" H 4400 2050 30  0000 C CNN
	1    4400 2050
	1    0    0    -1  
$EndComp
$Comp
L Device:R R7
U 1 1 56383C63
P 4800 1850
F 0 "R7" V 4880 1850 50  0000 C CNN
F 1 "10R" V 4800 1850 50  0000 C CNN
F 2 "Resistors_ThroughHole:Resistor_Vertical_RM5mm" V 4730 1850 30  0001 C CNN
F 3 "" H 4800 1850 30  0000 C CNN
	1    4800 1850
	0    1    1    0   
$EndComp
$Comp
L 3886_dual-rescue:CONN_01X02 P4
U 1 1 56384462
P 5450 1900
F 0 "P4" H 5450 2050 50  0000 C CNN
F 1 "OUT1" V 5550 1900 50  0000 C CNN
F 2 "Connect:AK300-2" H 5450 1900 60  0001 C CNN
F 3 "" H 5450 1900 60  0000 C CNN
	1    5450 1900
	1    0    0    -1  
$EndComp
$Comp
L power:GND #PWR04
U 1 1 56384FAE
P 3000 2300
F 0 "#PWR04" H 3000 2050 50  0001 C CNN
F 1 "GND" H 3000 2150 50  0000 C CNN
F 2 "" H 3000 2300 60  0000 C CNN
F 3 "" H 3000 2300 60  0000 C CNN
	1    3000 2300
	1    0    0    -1  
$EndComp
$Comp
L 3886_dual-rescue:LM3886T U2
U 1 1 56388AE4
P 8250 3250
F 0 "U2" H 8500 3500 40  0000 C CNN
F 1 "LM3886T" H 8500 3450 40  0000 C CNN
F 2 "lm3886:Multiwatt11" H 8050 3250 30  0000 C CIN
F 3 "" H 8250 3250 60  0000 C CNN
	1    8250 3250
	1    0    0    -1  
$EndComp
$Comp
L Device:C C9
U 1 1 56388AEA
P 6700 3050
F 0 "C9" H 6725 3150 50  0000 L CNN
F 1 "100n" H 6725 2950 50  0000 L CNN
F 2 "Capacitors_ThroughHole:C_Disc_D7.5_P5" H 6738 2900 30  0001 C CNN
F 3 "" H 6700 3050 60  0000 C CNN
	1    6700 3050
	0    1    1    0   
$EndComp
$Comp
L Device:R R8
U 1 1 56388AF0
P 7000 3350
F 0 "R8" V 7080 3350 50  0000 C CNN
F 1 "47k" V 7000 3350 50  0000 C CNN
F 2 "Resistors_ThroughHole:Resistor_Horizontal_RM15mm" V 6930 3350 30  0001 C CNN
F 3 "" H 7000 3350 30  0000 C CNN
	1    7000 3350
	-1   0    0    1   
$EndComp
$Comp
L Device:R R9
U 1 1 56388AF6
P 7300 3050
F 0 "R9" V 7380 3050 50  0000 C CNN
F 1 "1k" V 7300 3050 50  0000 C CNN
F 2 "Resistors_ThroughHole:Resistor_Horizontal_RM15mm" V 7230 3050 30  0001 C CNN
F 3 "" H 7300 3050 30  0000 C CNN
	1    7300 3050
	0    1    1    0   
$EndComp
$Comp
L 3886_dual-rescue:CONN_01X02 P5
U 1 1 56388AFC
P 6050 3100
F 0 "P5" H 6050 3250 50  0000 C CNN
F 1 "IN2" V 6150 3100 50  0000 C CNN
F 2 "Connect:AK300-2" H 6050 3100 60  0001 C CNN
F 3 "" H 6050 3100 60  0000 C CNN
	1    6050 3100
	-1   0    0    1   
$EndComp
$Comp
L power:GND #PWR05
U 1 1 56388B02
P 7000 3850
F 0 "#PWR05" H 7000 3600 50  0001 C CNN
F 1 "GND" H 7000 3700 50  0000 C CNN
F 2 "" H 7000 3850 60  0000 C CNN
F 3 "" H 7000 3850 60  0000 C CNN
	1    7000 3850
	1    0    0    -1  
$EndComp
$Comp
L Device:C C11
U 1 1 56388B17
P 8650 1200
F 0 "C11" H 8675 1300 50  0000 L CNN
F 1 "100n" H 8675 1100 50  0000 L CNN
F 2 "Capacitors_ThroughHole:C_Disc_D7.5_P5" H 8688 1050 30  0001 C CNN
F 3 "" H 8650 1200 60  0000 C CNN
	1    8650 1200
	1    0    0    -1  
$EndComp
$Comp
L Device:CP C14
U 1 1 56388B1D
P 8950 1200
F 0 "C14" H 8975 1300 50  0000 L CNN
F 1 "220u" H 8975 1100 50  0000 L CNN
F 2 "Capacitors_Elko_ThroughHole:Elko_vert_20x10mm_RM5" H 8988 1050 30  0001 C CNN
F 3 "" H 8950 1200 60  0000 C CNN
	1    8950 1200
	1    0    0    -1  
$EndComp
$Comp
L power:GND #PWR06
U 1 1 56388B23
P 8950 1700
F 0 "#PWR06" H 8950 1450 50  0001 C CNN
F 1 "GND" H 8950 1550 50  0000 C CNN
F 2 "" H 8950 1700 60  0000 C CNN
F 3 "" H 8950 1700 60  0000 C CNN
	1    8950 1700
	1    0    0    -1  
$EndComp
$Comp
L Device:C C13
U 1 1 56388B35
P 8850 4750
F 0 "C13" H 8875 4850 50  0000 L CNN
F 1 "100n" H 8875 4650 50  0000 L CNN
F 2 "Capacitors_ThroughHole:C_Disc_D7.5_P5" H 8888 4600 30  0001 C CNN
F 3 "" H 8850 4750 60  0000 C CNN
	1    8850 4750
	1    0    0    -1  
$EndComp
$Comp
L Device:CP C15
U 1 1 56388B3B
P 9200 4750
F 0 "C15" H 9225 4850 50  0000 L CNN
F 1 "220u" H 9225 4650 50  0000 L CNN
F 2 "Capacitors_Elko_ThroughHole:Elko_vert_20x10mm_RM5" H 9238 4600 30  0001 C CNN
F 3 "" H 9200 4750 60  0000 C CNN
	1    9200 4750
	1    0    0    -1  
$EndComp
$Comp
L power:GND #PWR07
U 1 1 56388B41
P 8850 5500
F 0 "#PWR07" H 8850 5250 50  0001 C CNN
F 1 "GND" H 8850 5350 50  0000 C CNN
F 2 "" H 8850 5500 60  0000 C CNN
F 3 "" H 8850 5500 60  0000 C CNN
	1    8850 5500
	1    0    0    -1  
$EndComp
$Comp
L 3886_dual-rescue:CONN_01X01 P6
U 1 1 56388B47
P 10200 4500
F 0 "P6" H 10200 4600 50  0000 C CNN
F 1 "-35V" V 10300 4500 50  0000 C CNN
F 2 "Wire_Pads:SolderWirePad_single_0-8mmDrill" H 10200 4500 60  0001 C CNN
F 3 "" H 10200 4500 60  0000 C CNN
	1    10200 4500
	1    0    0    -1  
$EndComp
$Comp
L Device:R R12
U 1 1 56388B53
P 8400 3750
F 0 "R12" V 8480 3750 50  0000 C CNN
F 1 "22k" V 8400 3750 50  0000 C CNN
F 2 "Resistors_ThroughHole:Resistor_Horizontal_RM15mm" V 8330 3750 30  0001 C CNN
F 3 "" H 8400 3750 30  0000 C CNN
	1    8400 3750
	-1   0    0    1   
$EndComp
$Comp
L power:GND #PWR08
U 1 1 56388B5C
P 8600 4000
F 0 "#PWR08" H 8600 3750 50  0001 C CNN
F 1 "GND" H 8600 3850 50  0000 C CNN
F 2 "" H 8600 4000 60  0000 C CNN
F 3 "" H 8600 4000 60  0000 C CNN
	1    8600 4000
	1    0    0    -1  
$EndComp
$Comp
L Device:CP C12
U 1 1 56388B62
P 8600 3750
F 0 "C12" H 8625 3850 50  0000 L CNN
F 1 "22u" H 8625 3650 50  0000 L CNN
F 2 "Capacitors_Elko_ThroughHole:Elko_vert_11x5mm_RM2" H 8638 3600 30  0001 C CNN
F 3 "" H 8600 3750 60  0000 C CNN
	1    8600 3750
	-1   0    0    1   
$EndComp
$Comp
L Device:R R11
U 1 1 56388B6C
P 7800 4300
F 0 "R11" V 7880 4300 50  0000 C CNN
F 1 "22k" V 7800 4300 50  0000 C CNN
F 2 "Resistors_ThroughHole:Resistor_Horizontal_RM15mm" V 7730 4300 30  0001 C CNN
F 3 "" H 7800 4300 30  0000 C CNN
	1    7800 4300
	0    1    1    0   
$EndComp
$Comp
L Device:R R10
U 1 1 56388B77
P 7400 4650
F 0 "R10" V 7480 4650 50  0000 C CNN
F 1 "1k" V 7400 4650 50  0000 C CNN
F 2 "Resistors_ThroughHole:Resistor_Horizontal_RM15mm" V 7330 4650 30  0001 C CNN
F 3 "" H 7400 4650 30  0000 C CNN
	1    7400 4650
	1    0    0    -1  
$EndComp
$Comp
L Device:C C10
U 1 1 56388B7D
P 7400 5100
F 0 "C10" H 7425 5200 50  0000 L CNN
F 1 "22u" H 7425 5000 50  0000 L CNN
F 2 "Capacitors_Elko_ThroughHole:Elko_vert_11x5mm_RM2" H 7438 4950 30  0001 C CNN
F 3 "" H 7400 5100 60  0000 C CNN
	1    7400 5100
	1    0    0    -1  
$EndComp
$Comp
L power:GND #PWR09
U 1 1 56388B89
P 9400 4100
F 0 "#PWR09" H 9400 3850 50  0001 C CNN
F 1 "GND" H 9400 3950 50  0000 C CNN
F 2 "" H 9400 4100 60  0000 C CNN
F 3 "" H 9400 4100 60  0000 C CNN
	1    9400 4100
	1    0    0    -1  
$EndComp
$Comp
L Device:C C16
U 1 1 56388B8F
P 9400 3850
F 0 "C16" H 9425 3950 50  0000 L CNN
F 1 "100n" H 9425 3750 50  0000 L CNN
F 2 "Capacitors_ThroughHole:C_Disc_D7.5_P5" H 9438 3700 30  0001 C CNN
F 3 "" H 9400 3850 60  0000 C CNN
	1    9400 3850
	1    0    0    -1  
$EndComp
$Comp
L Device:R R13
U 1 1 56388B95
P 9400 3450
F 0 "R13" V 9480 3450 50  0000 C CNN
F 1 "2.7R" V 9400 3450 50  0000 C CNN
F 2 "Resistors_ThroughHole:Resistor_Vertical_RM5mm" V 9330 3450 30  0001 C CNN
F 3 "" H 9400 3450 30  0000 C CNN
	1    9400 3450
	1    0    0    -1  
$EndComp
$Comp
L Device:R R14
U 1 1 56388B9B
P 9800 3250
F 0 "R14" V 9880 3250 50  0000 C CNN
F 1 "10R" V 9800 3250 50  0000 C CNN
F 2 "Resistors_ThroughHole:Resistor_Vertical_RM5mm" V 9730 3250 30  0001 C CNN
F 3 "" H 9800 3250 30  0000 C CNN
	1    9800 3250
	0    1    1    0   
$EndComp
$Comp
L 3886_dual-rescue:CONN_01X02 P8
U 1 1 56388BA6
P 10450 3300
F 0 "P8" H 10450 3450 50  0000 C CNN
F 1 "OUT2" V 10550 3300 50  0000 C CNN
F 2 "Connect:AK300-2" H 10450 3300 60  0001 C CNN
F 3 "" H 10450 3300 60  0000 C CNN
	1    10450 3300
	1    0    0    -1  
$EndComp
$Comp
L power:GND #PWR010
U 1 1 56388BB0
P 8000 3700
F 0 "#PWR010" H 8000 3450 50  0001 C CNN
F 1 "GND" H 8000 3550 50  0000 C CNN
F 2 "" H 8000 3700 60  0000 C CNN
F 3 "" H 8000 3700 60  0000 C CNN
	1    8000 3700
	1    0    0    -1  
$EndComp
Wire Wire Line
	1250 1650 1550 1650
Wire Wire Line
	1850 1650 2000 1650
Wire Wire Line
	2600 1650 2450 1650
Wire Wire Line
	2000 1800 2000 1650
Connection ~ 2000 1650
Wire Wire Line
	2000 2100 2000 2300
Wire Wire Line
	1250 1750 1250 2300
Wire Wire Line
	1250 2300 2000 2300
Connection ~ 2000 2300
Wire Wire Line
	3000 700  3000 1400
Wire Wire Line
	3200 700  3200 1500
Wire Wire Line
	3200 2200 3200 3200
Wire Wire Line
	3400 2500 3400 3200
Wire Wire Line
	3400 2200 3400 2150
Wire Wire Line
	3400 2150 3600 2150
Wire Wire Line
	3600 2150 3600 2200
Connection ~ 3400 2150
Wire Wire Line
	3600 2500 3600 2600
Wire Wire Line
	2650 2900 2400 2900
Wire Wire Line
	2400 2050 2400 2900
Wire Wire Line
	2400 2050 2600 2050
Wire Wire Line
	2950 2900 3850 2900
Wire Wire Line
	3850 2900 3850 1850
Connection ~ 2400 2900
Wire Wire Line
	2400 3400 2400 3550
Wire Wire Line
	3850 1850 4400 1850
Wire Wire Line
	4400 1900 4400 1850
Connection ~ 4400 1850
Wire Wire Line
	4400 2200 4400 2300
Wire Wire Line
	4400 2600 4400 2650
Wire Wire Line
	5250 1950 5250 2650
Wire Wire Line
	5250 2650 4400 2650
Connection ~ 4400 2650
Wire Wire Line
	4950 1850 5250 1850
Wire Wire Line
	6250 3050 6550 3050
Wire Wire Line
	6850 3050 7000 3050
Wire Wire Line
	7600 3050 7450 3050
Wire Wire Line
	7000 3200 7000 3050
Connection ~ 7000 3050
Wire Wire Line
	7000 3500 7000 3700
Wire Wire Line
	6250 3150 6250 3700
Wire Wire Line
	6250 3700 7000 3700
Connection ~ 7000 3700
Wire Wire Line
	8000 950  8000 2300
Wire Wire Line
	8200 2900 8200 2300
Wire Wire Line
	9200 4600 9200 4500
Wire Wire Line
	8200 4500 8400 4500
Wire Wire Line
	8850 4600 8850 4500
Connection ~ 9200 4500
Connection ~ 8850 4500
Wire Wire Line
	8400 3900 8400 4500
Connection ~ 8400 4500
Wire Wire Line
	8400 3600 8400 3550
Wire Wire Line
	8400 3550 8600 3550
Wire Wire Line
	8600 3550 8600 3600
Connection ~ 8400 3550
Wire Wire Line
	8600 3900 8600 4000
Wire Wire Line
	7650 4300 7400 4300
Wire Wire Line
	7400 3450 7400 4300
Wire Wire Line
	7400 3450 7600 3450
Wire Wire Line
	7950 4300 8850 4300
Wire Wire Line
	8850 4300 8850 3250
Connection ~ 7400 4300
Wire Wire Line
	7400 4800 7400 4950
Wire Wire Line
	7400 5250 8850 5250
Wire Wire Line
	8850 4900 8850 5250
Wire Wire Line
	9200 5250 9200 4900
Connection ~ 8850 5250
Wire Wire Line
	8850 3250 9400 3250
Wire Wire Line
	9400 3300 9400 3250
Connection ~ 9400 3250
Wire Wire Line
	9400 3600 9400 3700
Wire Wire Line
	9400 4000 9400 4050
Wire Wire Line
	10250 3350 10250 4050
Wire Wire Line
	10250 4050 9400 4050
Connection ~ 9400 4050
Wire Wire Line
	9950 3250 10250 3250
Wire Wire Line
	8950 1700 8950 1550
Wire Wire Line
	8950 1050 8950 950 
Connection ~ 8950 950 
Wire Wire Line
	8650 1050 8650 950 
Connection ~ 8650 950 
Wire Wire Line
	8650 1350 8650 1550
Wire Wire Line
	8650 1550 8950 1550
Connection ~ 8950 1550
Wire Wire Line
	8200 2300 8000 2300
Connection ~ 8000 2300
Wire Wire Line
	2400 3950 2400 3850
Wire Wire Line
	8200 3600 8200 4500
Wire Wire Line
	8000 950  8650 950 
$Comp
L Device:C C5
U 1 1 563A22FE
P 3850 3450
F 0 "C5" H 3875 3550 50  0000 L CNN
F 1 "100n" H 3875 3350 50  0000 L CNN
F 2 "Capacitors_ThroughHole:C_Disc_D7.5_P5" H 3888 3300 30  0001 C CNN
F 3 "" H 3850 3450 60  0000 C CNN
	1    3850 3450
	1    0    0    -1  
$EndComp
$Comp
L Device:CP C7
U 1 1 563A2304
P 4200 3450
F 0 "C7" H 4225 3550 50  0000 L CNN
F 1 "220u" H 4225 3350 50  0000 L CNN
F 2 "Capacitors_Elko_ThroughHole:Elko_vert_20x10mm_RM5" H 4238 3300 30  0001 C CNN
F 3 "" H 4200 3450 60  0000 C CNN
	1    4200 3450
	1    0    0    -1  
$EndComp
$Comp
L power:GND #PWR011
U 1 1 563A230A
P 3850 4200
F 0 "#PWR011" H 3850 3950 50  0001 C CNN
F 1 "GND" H 3850 4050 50  0000 C CNN
F 2 "" H 3850 4200 60  0000 C CNN
F 3 "" H 3850 4200 60  0000 C CNN
	1    3850 4200
	1    0    0    -1  
$EndComp
$Comp
L 3886_dual-rescue:CONN_01X01 P2
U 1 1 563A2310
P 5200 3200
F 0 "P2" H 5200 3300 50  0000 C CNN
F 1 "-35V" V 5300 3200 50  0000 C CNN
F 2 "Wire_Pads:SolderWirePad_single_0-8mmDrill" H 5200 3200 60  0001 C CNN
F 3 "" H 5200 3200 60  0000 C CNN
	1    5200 3200
	1    0    0    -1  
$EndComp
Wire Wire Line
	4200 3300 4200 3200
Wire Wire Line
	3200 3200 3400 3200
Wire Wire Line
	3850 3300 3850 3200
Connection ~ 4200 3200
Connection ~ 3850 3200
Wire Wire Line
	2400 3950 3850 3950
Wire Wire Line
	3850 3600 3850 3950
Wire Wire Line
	4200 3950 4200 3600
Connection ~ 3850 3950
Connection ~ 3400 3200
$Comp
L 3886_dual-rescue:CONN_01X01 P7
U 1 1 563A4781
P 5500 700
F 0 "P7" H 5500 800 50  0000 C CNN
F 1 "+35V" V 5600 700 50  0000 C CNN
F 2 "Wire_Pads:SolderWirePad_single_0-8mmDrill" H 5500 700 60  0001 C CNN
F 3 "" H 5500 700 60  0000 C CNN
	1    5500 700 
	1    0    0    -1  
$EndComp
$Comp
L Device:C C3
U 1 1 563A4787
P 3800 950
F 0 "C3" H 3825 1050 50  0000 L CNN
F 1 "100n" H 3825 850 50  0000 L CNN
F 2 "Capacitors_ThroughHole:C_Disc_D7.5_P5" H 3838 800 30  0001 C CNN
F 3 "" H 3800 950 60  0000 C CNN
	1    3800 950 
	1    0    0    -1  
$EndComp
$Comp
L Device:CP C6
U 1 1 563A478D
P 4100 950
F 0 "C6" H 4125 1050 50  0000 L CNN
F 1 "220u" H 4125 850 50  0000 L CNN
F 2 "Capacitors_Elko_ThroughHole:Elko_vert_20x10mm_RM5" H 4138 800 30  0001 C CNN
F 3 "" H 4100 950 60  0000 C CNN
	1    4100 950 
	1    0    0    -1  
$EndComp
$Comp
L power:GND #PWR012
U 1 1 563A4793
P 4100 1450
F 0 "#PWR012" H 4100 1200 50  0001 C CNN
F 1 "GND" H 4100 1300 50  0000 C CNN
F 2 "" H 4100 1450 60  0000 C CNN
F 3 "" H 4100 1450 60  0000 C CNN
	1    4100 1450
	1    0    0    -1  
$EndComp
Wire Wire Line
	4100 1450 4100 1300
Wire Wire Line
	4100 800  4100 700 
Connection ~ 4100 700 
Wire Wire Line
	3800 800  3800 700 
Connection ~ 3800 700 
Wire Wire Line
	3800 1100 3800 1300
Wire Wire Line
	3800 1300 4100 1300
Connection ~ 4100 1300
Wire Wire Line
	3000 700  3200 700 
Connection ~ 3200 700 
Wire Wire Line
	2000 1650 2150 1650
Wire Wire Line
	2000 2300 2000 2450
Wire Wire Line
	3400 2150 3400 2100
Wire Wire Line
	2400 2900 2400 3100
Wire Wire Line
	4400 1850 4650 1850
Wire Wire Line
	4400 2650 4400 2700
Wire Wire Line
	7000 3050 7150 3050
Wire Wire Line
	7000 3700 7000 3850
Wire Wire Line
	9200 4500 10000 4500
Wire Wire Line
	8850 4500 9200 4500
Wire Wire Line
	8400 4500 8850 4500
Wire Wire Line
	8400 3550 8400 3500
Wire Wire Line
	7400 4300 7400 4500
Wire Wire Line
	8850 5250 9200 5250
Wire Wire Line
	8850 5250 8850 5500
Wire Wire Line
	9400 3250 9650 3250
Wire Wire Line
	9400 4050 9400 4100
Wire Wire Line
	8950 950  10150 950 
Wire Wire Line
	8650 950  8950 950 
Wire Wire Line
	8950 1550 8950 1350
Wire Wire Line
	8000 2300 8000 2800
Wire Wire Line
	4200 3200 5000 3200
Wire Wire Line
	3850 3200 4200 3200
Wire Wire Line
	3850 3950 4200 3950
Wire Wire Line
	3850 3950 3850 4200
Wire Wire Line
	3400 3200 3850 3200
Wire Wire Line
	4100 700  5300 700 
Wire Wire Line
	3800 700  4100 700 
Wire Wire Line
	4100 1300 4100 1100
Wire Wire Line
	3200 700  3800 700 
$EndSCHEMATC
